[gd_scene load_steps=2 format=2]

[ext_resource path="res://Assets/Graphics/monochrome_transparent.png" type="Texture" id=1]

[node name="Crosshair" type="Node2D"]
scale = Vector2( 1.5, 1.5 )

[node name="Sprite" type="Sprite" parent="."]
texture = ExtResource( 1 )
vframes = 32
hframes = 32
frame = 475
