[gd_scene load_steps=4 format=2]

[ext_resource path="res://Scripts/Road.gd" type="Script" id=1]
[ext_resource path="res://Scenes/Player.tscn" type="PackedScene" id=2]
[ext_resource path="res://Scenes/UI.tscn" type="PackedScene" id=3]

[node name="Road" type="Node2D"]
script = ExtResource( 1 )

[node name="Player" parent="." instance=ExtResource( 2 )]
position = Vector2( 73.668, 302.281 )

[node name="Camera2D" type="Camera2D" parent="."]
position = Vector2( 512, 300 )
current = true

[node name="Control" parent="." instance=ExtResource( 3 )]
layer = 1

[node name="Tween" type="Tween" parent="."]

