[gd_scene load_steps=4 format=2]

[ext_resource path="res://Scripts/Trail.gd" type="Script" id=1]
[ext_resource path="res://Assets/Graphics/monochrome_transparent.png" type="Texture" id=2]

[sub_resource type="Animation" id=1]
resource_name = "disspiate"
length = 0.2
tracks/0/type = "value"
tracks/0/path = NodePath(".:frame")
tracks/0/interp = 1
tracks/0/loop_wrap = true
tracks/0/imported = false
tracks/0/enabled = true
tracks/0/keys = {
"times": PoolRealArray( 0, 0.2 ),
"transitions": PoolRealArray( 1, 1 ),
"update": 1,
"values": [ 757, 756 ]
}

[node name="Trail" type="Node2D"]
script = ExtResource( 1 )

[node name="Sprite" type="Sprite" parent="."]
scale = Vector2( 0.5, 0.5 )
texture = ExtResource( 2 )
vframes = 32
hframes = 32
frame = 756

[node name="AnimationPlayer" type="AnimationPlayer" parent="Sprite"]
autoplay = "disspiate"
anims/disspiate = SubResource( 1 )
[connection signal="animation_finished" from="Sprite/AnimationPlayer" to="." method="_on_AnimationPlayer_animation_finished"]
